st7789/test.vcd
$comment Generated by nMigen $end
$date 2020-10-23 16:11:11.944296 $end
$timescale 100 ps $end
$scope module top $end
$scope module st7789 $end
$var wire 1 0 clk $end
$var wire 1 1 rst $end
$var wire 1 2 spi_resn $end
$var wire 1 3 resn $end
$var wire 1 4 spi_csn $end
$var wire 1 5 clken $end
$var wire 1 6 spi_dc $end
$var wire 1 7 dc $end
$var wire 1 8 spi_clk $end
$var wire 11 9 index $end
$var wire 1 a spi_mosi $end
$var wire 8 b data $end
$var wire 8 c next_byte $end
$var wire 8 d memory(0) $end
$var wire 8 e memory(1) $end
$var wire 8 f memory(2) $end
$var wire 8 10 memory(3) $end
$var wire 8 11 memory(4) $end
$var wire 8 12 memory(5) $end
$var wire 8 13 memory(6) $end
$var wire 8 14 memory(7) $end
$var wire 8 15 memory(8) $end
$var wire 8 16 memory(9) $end
$var wire 8 17 memory(10) $end
$var wire 8 18 memory(11) $end
$var wire 8 19 memory(12) $end
$var wire 8 1a memory(13) $end
$var wire 8 1b memory(14) $end
$var wire 8 1c memory(15) $end
$var wire 8 1d memory(16) $end
$var wire 8 1e memory(17) $end
$var wire 8 1f memory(18) $end
$var wire 8 20 memory(19) $end
$var wire 8 21 memory(20) $end
$var wire 8 22 memory(21) $end
$var wire 8 23 memory(22) $end
$var wire 8 24 memory(23) $end
$var wire 8 25 memory(24) $end
$var wire 8 26 memory(25) $end
$var wire 8 27 memory(26) $end
$var wire 8 28 memory(27) $end
$var wire 8 29 memory(28) $end
$var wire 8 2a memory(29) $end
$var wire 8 2b memory(30) $end
$var wire 8 2c memory(31) $end
$var wire 8 2d memory(32) $end
$var wire 8 2e memory(33) $end
$var wire 8 2f memory(34) $end
$var wire 8 30 memory(35) $end
$var wire 8 31 memory(36) $end
$var wire 8 32 memory(37) $end
$var wire 28 33 delay_cnt $end
$var wire 8 34 init_cnt $end
$var wire 6 35 arg $end
$var wire 8 36 last_cmd $end
$var wire 5 37 num_args $end
$var wire 1 38 delay_set $end
$var wire 1 39 byte_toggle $end
$var wire 1 3a next_pixel $end
$var wire 8 3b x $end
$var wire 8 3c y $end
$var wire 1 3d init $end
$var wire 16 3e color $end
$upscope $end
$upscope $end
$enddefinitions $end
#0
$dumpvars
00
01
02
03
14
05
16
17
18
b0 9
0a
b0 b
b10000000 c
b10000000 d
b1101 e
b1 f
b10000000 10
b10001 11
b10001 12
b10000000 13
b1110 14
b111010 15
b10000001 16
b1010101 17
b1110 18
b110110 19
b1 1a
b11000000 1b
b101010 1c
b100 1d
b0 1e
b0 1f
b0 20
b11101111 21
b101011 22
b100 23
b0 24
b1010000 25
b1 26
b111111 27
b100001 28
b10000000 29
b1110 2a
b10011 2b
b10000000 2c
b1110 2d
b101001 2e
b10000000 2f
b1110 30
b101100 31
b0 32
b11001 33
b0 34
b1 35
b0 36
b0 37
038
039
03a
b0 3b
b0 3c
13d
b1111100000000000 3e
$end
#200
10
07
b10 35
b11000 33
b1 34
b1 9
13
15
138
04
06
12
#400
00
#600
10
b10 9
b10111 33
08
#800
00
#1000
10
b11 9
b10110 33
18
#1200
00
#1399
10
b100 9
b10101 33
08
#1599
00
#1799
10
b101 9
b10100 33
18
#1999
00
#2199
10
b110 9
b10011 33
08
#2400
00
#2600
10
b111 9
b10010 33
18
#2800
00
#3000
10
b1000 9
b10001 33
08
#3200
00
#3400
10
b1001 9
b10000 33
18
#3600
00
#3800
10
b1010 9
b1111 33
08
#4000
00
#4200
10
b1011 9
b1110 33
18
#4400
00
#4600
10
b1100 9
b1101 33
08
#4800
00
#5000
10
b1101 9
b1100 33
18
#5200
00
#5400
10
b1110 9
b1011 33
08
#5600
00
#5800
10
b1111 9
b1010 33
18
#6000
00
#6200
10
b10000 9
b1001 33
b1101 c
08
#6400
00
#6600
10
b0 35
b110010000000000000 33
b10 34
b10001 9
05
038
14
18
#6800
00
#7000
10
b10010 9
b110001111111111111 33
#7200
00
#7400
10
b10011 9
b110001111111111110 33
#7600
00
#7800
10
b10100 9
b110001111111111101 33
#8000
00
#8200
10
b10101 9
b110001111111111100 33
#8400
00
#8600
10
b10110 9
b110001111111111011 33
#8800
00
#9000
10
b10111 9
b110001111111111010 33
#9200
00
#9400
10
b11000 9
b110001111111111001 33
#9600
00
#9800
10
b11001 9
b110001111111111000 33
#10000
00
#10200
10
b11010 9
b110001111111110111 33
#10400
00
#10600
10
b11011 9
b110001111111110110 33
#10800
00
#11000
10
b11100 9
b110001111111110101 33
#11200
00
#11400
10
b11101 9
b110001111111110100 33
#11600
00
#11800
10
b11110 9
b110001111111110011 33
#12000
00
#12200
10
b11111 9
b110001111111110010 33
#12400
00
#12600
10
b100000 9
b110001111111110001 33
b1 c
#12800
00
#13000
10
b1 36
b1 35
b110001111111110000 33
b11 34
b100001 9
#13200
00
#13400
10
b100010 9
b110001111111101111 33
#13600
00
#13800
10
b100011 9
b110001111111101110 33
#14000
00
#14200
10
b100100 9
b110001111111101101 33
#14400
00
#14600
10
b100101 9
b110001111111101100 33
#14800
00
#15000
10
b100110 9
b110001111111101011 33
#15200
00
#15400
10
b100111 9
b110001111111101010 33
#15600
00
#15800
10
b101000 9
b110001111111101001 33
#16000
00
#16200
10
b101001 9
b110001111111101000 33
#16400
00
#16600
10
b101010 9
b110001111111100111 33
#16800
00
#17000
10
b101011 9
b110001111111100110 33
#17200
00
#17400
10
b101100 9
b110001111111100101 33
#17600
00
#17800
10
b101101 9
b110001111111100100 33
#18000
00
#18200
10
b101110 9
b110001111111100011 33
#18400
00
#18600
10
b101111 9
b110001111111100010 33
#18800
00
#19000
10
b110000 9
b110001111111100001 33
b10000000 c
#19200
00
#19400
10
b10 35
b110001111111100000 33
b100 34
b110001 9
b1 b
15
138
04
#19600
00
#19800
10
b110010 9
b110001111111011111 33
08
#20000
00
#20200
10
b110011 9
b110001111111011110 33
b10 b
18
#20400
00
#20600
10
b110100 9
b110001111111011101 33
08
#20800
00
#20999
10
b110101 9
b110001111111011100 33
b100 b
18
#21199
00
#21399
10
b110110 9
b110001111111011011 33
08
#21599
00
#21799
10
b110111 9
b110001111111011010 33
b1000 b
18
#21999
00
#22199
10
b111000 9
b110001111111011001 33
08
#22399
00
#22599
10
b111001 9
b110001111111011000 33
b10000 b
18
#22799
00
#22999
10
b111010 9
b110001111111010111 33
08
#23199
00
#23399
10
b111011 9
b110001111111010110 33
b100000 b
18
#23599
00
#23799
10
b111100 9
b110001111111010101 33
08
#23999
00
#24199
10
b111101 9
b110001111111010100 33
b1000000 b
18
#24399
00
#24599
10
b111110 9
b110001111111010011 33
08
#24799
00
#24999
10
b111111 9
b110001111111010010 33
b10000000 b
18
1a
#25199
00
#25399
10
b1000000 9
b110001111111010001 33
b10001 c
08
#25599
00
#25799
10
b0 35
b1100100000000000000000 33
b101 34
b1000001 9
b0 b
05
038
14
18
0a
#25999
00
#26199
10
b1000010 9
b1100011111111111111111 33
#26399
00
#26599
10
b1000011 9
b1100011111111111111110 33
#26799
00
#26999
10
b1000100 9
b1100011111111111111101 33
#27199
00
#27399
10
b1000101 9
b1100011111111111111100 33
#27599
00
#27799
10
b1000110 9
b1100011111111111111011 33
#27999
00
#28199
10
b1000111 9
b1100011111111111111010 33
#28399
00
#28599
10
b1001000 9
b1100011111111111111001 33
#28799
00
#28999
10
b1001001 9
b1100011111111111111000 33
#29199
00
#29399
10
b1001010 9
b1100011111111111110111 33
#29599
00
#29799
10
b1001011 9
b1100011111111111110110 33
#29999
00
#30199
10
b1001100 9
b1100011111111111110101 33
#30399
00
#30599
10
b1001101 9
b1100011111111111110100 33
#30799
00
#30999
10
b1001110 9
b1100011111111111110011 33
#31199
00
#31399
10
b1001111 9
b1100011111111111110010 33
#31599
00
#31799
10
b1010000 9
b1100011111111111110001 33
#31999
00
#32199
10
b10001 36
b1 35
b1100011111111111110000 33
b110 34
b1010001 9
#32399
00
#32599
10
b1010010 9
b1100011111111111101111 33
#32799
00
#32999
10
b1010011 9
b1100011111111111101110 33
#33199
00
#33399
10
b1010100 9
b1100011111111111101101 33
#33599
00
#33799
10
b1010101 9
b1100011111111111101100 33
#33999
00
#34199
10
b1010110 9
b1100011111111111101011 33
#34399
00
#34599
10
b1010111 9
b1100011111111111101010 33
#34799
00
#34999
10
b1011000 9
b1100011111111111101001 33
#35199
00
#35399
10
b1011001 9
b1100011111111111101000 33
#35599
00
#35799
10
b1011010 9
b1100011111111111100111 33
#35999
00
#36199
10
b1011011 9
b1100011111111111100110 33
#36399
00
#36599
10
b1011100 9
b1100011111111111100101 33
#36799
00
#36999
10
b1011101 9
b1100011111111111100100 33
#37199
00
#37399
10
b1011110 9
b1100011111111111100011 33
#37599
00
#37799
10
b1011111 9
b1100011111111111100010 33
#37999
00
#38199
10
b1100000 9
b1100011111111111100001 33
b10000000 c
#38399
00
#38599
10
b10 35
b1100011111111111100000 33
b111 34
b1100001 9
b10001 b
15
138
04
#38799
00
#38999
10
b1100010 9
b1100011111111111011111 33
08
#39199
00
#39399
10
b1100011 9
b1100011111111111011110 33
b100010 b
18
#39599
00
#39799
10
b1100100 9
b1100011111111111011101 33
08
#39999
00
#40199
10
b1100101 9
b1100011111111111011100 33
b1000100 b
18
#40399
00
#40599
10
b1100110 9
b1100011111111111011011 33
08
#40799
00
#40999
10
b1100111 9
b1100011111111111011010 33
b10001000 b
18
1a
#41199
00
#41399
10
b1101000 9
b1100011111111111011001 33
08
#41599
00
#41799
10
b1101001 9
b1100011111111111011000 33
b10000 b
18
0a
#41999
00
#42199
10
b1101010 9
b1100011111111111010111 33
08
#42399
00
#42599
10
b1101011 9
b1100011111111111010110 33
b100000 b
18
#42799
00
#42999
10
b1101100 9
b1100011111111111010101 33
08
#43199
00
#43399
10
b1101101 9
b1100011111111111010100 33
b1000000 b
18
#43599
00
#43799
10
b1101110 9
b1100011111111111010011 33
08
#43999
00
#44199
10
b1101111 9
b1100011111111111010010 33
b10000000 b
18
1a
#44399
00
#44599
10
b1110000 9
b1100011111111111010001 33
b1110 c
08
#44799
00
#44999
10
b0 35
b1100100000000000000 33
b1000 34
b1110001 9
b0 b
05
038
14
18
0a
#45199
00
#45399
10
b1110010 9
b1100011111111111111 33
#45599
00
#45799
10
b1110011 9
b1100011111111111110 33
#45999
00
#46199
10
b1110100 9
b1100011111111111101 33
#46399
00
#46599
10
b1110101 9
b1100011111111111100 33
#46799
00
#46999
10
b1110110 9
b1100011111111111011 33
#47199
00
#47399
10
b1110111 9
b1100011111111111010 33
#47599
00
#47799
10
b1111000 9
b1100011111111111001 33
#47999
00
#48199
10
b1111001 9
b1100011111111111000 33
#48399
00
#48599
10
b1111010 9
b1100011111111110111 33
#48799
00
#48999
10
b1111011 9
b1100011111111110110 33
#49199
00
#49399
10
b1111100 9
b1100011111111110101 33
#49599
00
#49799
10
b1111101 9
b1100011111111110100 33
#49999
00
#50199
10
b1111110 9
b1100011111111110011 33
#50399
00
#50599
10
b1111111 9
b1100011111111110010 33
#50799
00
#50999
10
b10000000 9
b1100011111111110001 33
b111010 c
#51199
00
#51399
10
b111010 36
b1 35
b1100011111111110000 33
b1001 34
b10000001 9
#51599
00
#51799
10
b10000010 9
b1100011111111101111 33
#51999
00
#52199
10
b10000011 9
b1100011111111101110 33
#52399
00
#52599
10
b10000100 9
b1100011111111101101 33
#52799
00
#52999
10
b10000101 9
b1100011111111101100 33
#53199
00
#53399
10
b10000110 9
b1100011111111101011 33
#53599
00
#53799
10
b10000111 9
b1100011111111101010 33
#53999
00
#54199
10
b10001000 9
b1100011111111101001 33
#54399
00
#54599
10
b10001001 9
b1100011111111101000 33
#54799
00
#54999
10
b10001010 9
b1100011111111100111 33
#55199
00
#55399
10
b10001011 9
b1100011111111100110 33
#55599
00
#55799
10
b10001100 9
b1100011111111100101 33
#55999
00
#56199
10
b10001101 9
b1100011111111100100 33
#56399
00
#56599
10
b10001110 9
b1100011111111100011 33
#56799
00
#56999
10
b10001111 9
b1100011111111100010 33
#57199
00
#57399
10
b10010000 9
b1100011111111100001 33
b10000001 c
#57599
00
#57799
10
b10 35
b1100011111111100000 33
b1010 34
b10010001 9
b1 37
b111010 b
15
138
04
#57999
00
#58199
10
b10010010 9
b1100011111111011111 33
08
#58399
00
#58599
10
b10010011 9
b1100011111111011110 33
b1110100 b
18
#58799
00
#58999
10
b10010100 9
b1100011111111011101 33
08
#59199
00
#59399
10
b10010101 9
b1100011111111011100 33
b11101000 b
18
1a
#59599
00
#59799
10
b10010110 9
b1100011111111011011 33
08
#59999
00
#60199
10
b10010111 9
b1100011111111011010 33
b11010000 b
18
#60399
00
#60599
10
b10011000 9
b1100011111111011001 33
08
#60799
00
#60999
10
b10011001 9
b1100011111111011000 33
b10100000 b
18
#61199
00
#61399
10
b10011010 9
b1100011111111010111 33
08
#61599
00
#61799
10
b10011011 9
b1100011111111010110 33
b1000000 b
18
0a
#61999
00
#62199
10
b10011100 9
b1100011111111010101 33
08
#62399
00
#62599
10
b10011101 9
b1100011111111010100 33
b10000000 b
18
1a
#62799
00
#62999
10
b10011110 9
b1100011111111010011 33
08
#63199
00
#63399
10
b10011111 9
b1100011111111010010 33
b0 b
18
0a
#63599
00
#63799
10
b10100000 9
b1100011111111010001 33
b1010101 c
08
#63999
00
#64199
10
17
b11 35
b1100011111111010000 33
b1011 34
b10100001 9
b1010101 b
16
18
#64399
00
#64599
10
b10100010 9
b1100011111111001111 33
08
#64799
00
#64999
10
b10100011 9
b1100011111111001110 33
b10101010 b
18
1a
#65199
00
#65399
10
b10100100 9
b1100011111111001101 33
08
#65599
00
#65799
10
b10100101 9
b1100011111111001100 33
b1010100 b
18
0a
#65999
00
#66199
10
b10100110 9
b1100011111111001011 33
08
#66399
00
#66599
10
b10100111 9
b1100011111111001010 33
b10101000 b
18
1a
#66799
00
#66999
10
b10101000 9
b1100011111111001001 33
08
#67199
00
#67399
10
b10101001 9
b1100011111111001000 33
b1010000 b
18
0a
#67599
00
#67799
10
b10101010 9
b1100011111111000111 33
08
#67999
00
#68199
10
b10101011 9
b1100011111111000110 33
b10100000 b
18
1a
#68399
00
#68599
10
b10101100 9
b1100011111111000101 33
08
#68799
00
#68999
10
b10101101 9
b1100011111111000100 33
b1000000 b
18
0a
#69199
00
#69399
10
b10101110 9
b1100011111111000011 33
08
#69599
00
#69799
10
b10101111 9
b1100011111111000010 33
b10000000 b
18
1a
#69999
00
#70199
10
b10110000 9
b1100011111111000001 33
b1110 c
08
#70399
00
#70599
10
07
b0 35
b1100100000000000000 33
b1100 34
b10110001 9
b0 b
05
038
14
06
18
0a
#70799
00
#70999
10
b10110010 9
b1100011111111111111 33
#71199
00
#71399
10
b10110011 9
b1100011111111111110 33
#71599
00
#71799
10
b10110100 9
b1100011111111111101 33
#71999
00
#72199
10
b10110101 9
b1100011111111111100 33
#72399
00
#72599
10
b10110110 9
b1100011111111111011 33
#72799
00
#72999
10
b10110111 9
b1100011111111111010 33
#73199
00
#73399
10
b10111000 9
b1100011111111111001 33
#73599
00
#73799
10
b10111001 9
b1100011111111111000 33
#73999
00
#74199
10
b10111010 9
b1100011111111110111 33
#74399
00
#74599
10
b10111011 9
b1100011111111110110 33
#74799
00
#74999
10
b10111100 9
b1100011111111110101 33
#75199
00
#75399
10
b10111101 9
b1100011111111110100 33
#75599
00
#75799
10
b10111110 9
b1100011111111110011 33
#75999
00
#76199
10
b10111111 9
b1100011111111110010 33
#76399
00
#76599
10
b11000000 9
b1100011111111110001 33
b110110 c
#76799
00
#76999
10
b110110 36
b1 35
b1100011111111110000 33
b1101 34
b11000001 9
#77199
00
#77399
10
b11000010 9
b1100011111111101111 33
#77599
00
#77799
10
b11000011 9
b1100011111111101110 33
#77999
00
#78199
10
b11000100 9
b1100011111111101101 33
#78399
00
#78599
10
b11000101 9
b1100011111111101100 33
#78799
00
#78999
10
b11000110 9
b1100011111111101011 33
#79199
00
#79399
10
b11000111 9
b1100011111111101010 33
#79599
00
#79799
10
b11001000 9
b1100011111111101001 33
#79999
00
#80199
10
b11001001 9
b1100011111111101000 33
#80399
00
#80599
10
b11001010 9
b1100011111111100111 33
#80799
00
#80999
10
b11001011 9
b1100011111111100110 33
#81199
00
#81399
10
b11001100 9
b1100011111111100101 33
#81599
00
#81799
10
b11001101 9
b1100011111111100100 33
#81999
00
#82199
10
b11001110 9
b1100011111111100011 33
#82399
00
#82599
10
b11001111 9
b1100011111111100010 33
#82799
00
#82999
10
b11010000 9
b1100011111111100001 33
b1 c
#83199
00
#83399
10
b10 35
b1100011111111100000 33
b1110 34
b11010001 9
b110110 b
15
04
#83599
00
#83799
10
b11010010 9
b1100011111111011111 33
08
#83999
00
#84199
10
b11010011 9
b1100011111111011110 33
b1101100 b
18
#84399
00
#84599
10
b11010100 9
b1100011111111011101 33
08
#84799
00
#84999
10
b11010101 9
b1100011111111011100 33
b11011000 b
18
1a
#85199
00
#85399
10
b11010110 9
b1100011111111011011 33
08
#85599
00
#85799
10
b11010111 9
b1100011111111011010 33
b10110000 b
18
#85999
00
#86199
10
b11011000 9
b1100011111111011001 33
08
#86399
00
#86599
10
b11011001 9
b1100011111111011000 33
b1100000 b
18
0a
#86799
00
#86999
10
b11011010 9
b1100011111111010111 33
08
#87199
00
#87399
10
b11011011 9
b1100011111111010110 33
b11000000 b
18
1a
#87599
00
#87799
10
b11011100 9
b1100011111111010101 33
08
#87999
00
#88199
10
b11011101 9
b1100011111111010100 33
b10000000 b
18
#88399
00
#88599
10
b11011110 9
b1100011111111010011 33
08
#88799
00
#88999
10
b11011111 9
b1100011111111010010 33
b0 b
18
0a
#89199
00
#89399
10
b11100000 9
b1100011111111010001 33
b11000000 c
08
#89599
00
#89799
10
17
b0 35
b1100011111111010000 33
b1111 34
b11100001 9
b11000000 b
16
18
1a
#89999
00
#90199
10
b11100010 9
b1100011111111001111 33
08
#90399
00
#90599
10
b11100011 9
b1100011111111001110 33
b10000000 b
18
#90799
00
#90999
10
b11100100 9
b1100011111111001101 33
08
#91199
00
#91399
10
b11100101 9
b1100011111111001100 33
b0 b
18
0a
#91599
00
#91799
10
b11100110 9
b1100011111111001011 33
08
#91999
00
#92199
10
b11100111 9
b1100011111111001010 33
18
#92399
00
#92599
10
b11101000 9
b1100011111111001001 33
08
#92799
00
#92999
10
b11101001 9
b1100011111111001000 33
18
#93199
00
#93399
10
b11101010 9
b1100011111111000111 33
08
#93599
00
#93799
10
b11101011 9
b1100011111111000110 33
18
#93999
00
#94199
10
b11101100 9
b1100011111111000101 33
08
#94399
00
#94599
10
b11101101 9
b1100011111111000100 33
18
#94799
00
#94999
10
b11101110 9
b1100011111111000011 33
08
#95199
00
#95399
10
b11101111 9
b1100011111111000010 33
18
#95599
00
#95799
10
b11110000 9
b1100011111111000001 33
b101010 c
08
#95999
00
#96199
10
07
b101010 36
b1 35
b1100011111111000000 33
b10000 34
b11110001 9
05
14
06
18
#96399
00
#96599
10
b11110010 9
b1100011111110111111 33
#96799
00
#96999
10
b11110011 9
b1100011111110111110 33
#97199
00
#97399
10
b11110100 9
b1100011111110111101 33
#97599
00
#97799
10
b11110101 9
b1100011111110111100 33
#97999
00
#98199
10
b11110110 9
b1100011111110111011 33
#98399
00
#98599
10
b11110111 9
b1100011111110111010 33
#98799
00
#98999
10
b11111000 9
b1100011111110111001 33
#99199
00
#99399
10
b11111001 9
b1100011111110111000 33
#99599
00
#99799
10
b11111010 9
b1100011111110110111 33
#99999
00
#100199
10
b11111011 9
b1100011111110110110 33
#100399
00
#100599
10
b11111100 9
b1100011111110110101 33
#100799
00
#100999
10
b11111101 9
b1100011111110110100 33
#101199
00
#101399
10
b11111110 9
b1100011111110110011 33
#101599
00
#101799
10
b11111111 9
b1100011111110110010 33
#101999
00
#102199
10
b100000000 9
b1100011111110110001 33
b100 c
#102399
00
#102599
10
b10 35
b1100011111110110000 33
b10001 34
b100000001 9
b100 37
b101010 b
15
04
#102799
00
#102999
10
b100000010 9
b1100011111110101111 33
08
#103199
00
#103399
10
b100000011 9
b1100011111110101110 33
b1010100 b
18
#103599
00
#103799
10
b100000100 9
b1100011111110101101 33
08
#103999
00
#104199
10
b100000101 9
b1100011111110101100 33
b10101000 b
18
1a
#104399
00
#104599
10
b100000110 9
b1100011111110101011 33
08
#104799
00
#104999
10
b100000111 9
b1100011111110101010 33
b1010000 b
18
0a
#105199
00
#105399
10
b100001000 9
b1100011111110101001 33
08
#105599
00
#105799
10
b100001001 9
b1100011111110101000 33
b10100000 b
18
1a
#105999
00
#106199
10
b100001010 9
b1100011111110100111 33
08
#106399
00
#106599
10
b100001011 9
b1100011111110100110 33
b1000000 b
18
0a
#106799
00
#106999
10
b100001100 9
b1100011111110100101 33
08
#107199
00
#107399
10
b100001101 9
b1100011111110100100 33
b10000000 b
18
1a
#107599
00
#107799
10
b100001110 9
b1100011111110100011 33
08
#107999
00
#108199
10
b100001111 9
b1100011111110100010 33
b0 b
18
0a
#108399
00
#108599
10
b100010000 9
b1100011111110100001 33
b0 c
08
#108799
00
#108999
10
17
b11 35
b1100011111110100000 33
b10010 34
b100010001 9
16
18
#109199
00
#109399
10
b100010010 9
b1100011111110011111 33
08
#109599
00
#109799
10
b100010011 9
b1100011111110011110 33
18
#109999
00
#110199
10
b100010100 9
b1100011111110011101 33
08
#110399
00
#110599
10
b100010101 9
b1100011111110011100 33
18
#110799
00
#110999
10
b100010110 9
b1100011111110011011 33
08
#111199
00
#111399
10
b100010111 9
b1100011111110011010 33
18
#111599
00
#111799
10
b100011000 9
b1100011111110011001 33
08
#111999
00
#112199
10
b100011001 9
b1100011111110011000 33
18
#112399
00
#112599
10
b100011010 9
b1100011111110010111 33
08
#112799
00
#112999
10
b100011011 9
b1100011111110010110 33
18
#113199
00
#113399
10
b100011100 9
b1100011111110010101 33
08
#113599
00
#113799
10
b100011101 9
b1100011111110010100 33
18
#113999
00
#114199
10
b100011110 9
b1100011111110010011 33
08
#114399
00
#114599
10
b100011111 9
b1100011111110010010 33
18
#114799
00
#114999
10
b100100000 9
b1100011111110010001 33
08
#115199
00
#115399
10
b100100001 9
b100 35
b1100011111110010000 33
b10011 34
18
#115599
00
#115799
10
b100100010 9
b1100011111110001111 33
08
#115999
00
#116199
10
b100100011 9
b1100011111110001110 33
18
#116399
00
#116599
10
b100100100 9
b1100011111110001101 33
08
#116799
00
#116999
10
b100100101 9
b1100011111110001100 33
18
#117199
00
#117399
10
b100100110 9
b1100011111110001011 33
08
#117599
00
#117799
10
b100100111 9
b1100011111110001010 33
18
#117999
00
#118199
10
b100101000 9
b1100011111110001001 33
08
#118399
00
#118599
10
b100101001 9
b1100011111110001000 33
18
#118799
00
#118999
10
b100101010 9
b1100011111110000111 33
08
#119199
00
#119399
10
b100101011 9
b1100011111110000110 33
18
#119599
00
#119799
10
b100101100 9
b1100011111110000101 33
08
#119999
00
#120199
10
b100101101 9
b1100011111110000100 33
18
#120399
00
#120599
10
b100101110 9
b1100011111110000011 33
08
#120799
00
#120999
10
b100101111 9
b1100011111110000010 33
18
#121199
00
#121399
10
b100110000 9
b1100011111110000001 33
08
#121599
00
#121799
10
b100110001 9
b101 35
b1100011111110000000 33
b10100 34
18
#121999
00
#122199
10
b100110010 9
b1100011111101111111 33
08
#122399
00
#122599
10
b100110011 9
b1100011111101111110 33
18
#122799
00
#122999
10
b100110100 9
b1100011111101111101 33
08
#123199
00
#123399
10
b100110101 9
b1100011111101111100 33
18
#123599
00
#123799
10
b100110110 9
b1100011111101111011 33
08
#123999
00
#124199
10
b100110111 9
b1100011111101111010 33
18
#124399
00
#124599
10
b100111000 9
b1100011111101111001 33
08
#124799
00
#124999
10
b100111001 9
b1100011111101111000 33
18
#125199
00
#125399
10
b100111010 9
b1100011111101110111 33
08
#125599
00
#125799
10
b100111011 9
b1100011111101110110 33
18
#125999
00
#126199
10
b100111100 9
b1100011111101110101 33
08
#126399
00
#126599
10
b100111101 9
b1100011111101110100 33
18
#126799
00
#126999
10
b100111110 9
b1100011111101110011 33
08
#127199
00
#127399
10
b100111111 9
b1100011111101110010 33
18
#127599
00
#127799
10
b101000000 9
b1100011111101110001 33
b11101111 c
08
#127999
00
#128199
10
b0 35
b1100011111101110000 33
b10101 34
b101000001 9
b11101111 b
18
1a
#128399
00
#128599
10
b101000010 9
b1100011111101101111 33
08
#128799
00
#128999
10
b101000011 9
b1100011111101101110 33
b11011110 b
18
#129199
00
#129399
10
b101000100 9
b1100011111101101101 33
08
#129599
00
#129799
10
b101000101 9
b1100011111101101100 33
b10111100 b
18
#129999
00
#130199
10
b101000110 9
b1100011111101101011 33
08
#130399
00
#130599
10
b101000111 9
b1100011111101101010 33
b1111000 b
18
0a
#130799
00
#130999
10
b101001000 9
b1100011111101101001 33
08
#131199
00
#131399
10
b101001001 9
b1100011111101101000 33
b11110000 b
18
1a
#131599
00
#131799
10
b101001010 9
b1100011111101100111 33
08
#131999
00
#132199
10
b101001011 9
b1100011111101100110 33
b11100000 b
18
#132399
00
#132599
10
b101001100 9
b1100011111101100101 33
08
#132799
00
#132999
10
b101001101 9
b1100011111101100100 33
b11000000 b
18
#133199
00
#133399
10
b101001110 9
b1100011111101100011 33
08
#133599
00
#133799
10
b101001111 9
b1100011111101100010 33
b10000000 b
18
#133999
00
#134199
10
b101010000 9
b1100011111101100001 33
b101011 c
08
#134399
00
#134599
10
07
b101011 36
b1 35
b1100011111101100000 33
b10110 34
b101010001 9
b0 b
05
14
06
18
0a
#134799
00
#134999
10
b101010010 9
b1100011111101011111 33
#135199
00
#135399
10
b101010011 9
b1100011111101011110 33
#135599
00
#135799
10
b101010100 9
b1100011111101011101 33
#135999
00
#136199
10
b101010101 9
b1100011111101011100 33
#136399
00
#136599
10
b101010110 9
b1100011111101011011 33
#136799
00
#136999
10
b101010111 9
b1100011111101011010 33
#137199
00
#137399
10
b101011000 9
b1100011111101011001 33
#137599
00
#137799
10
b101011001 9
b1100011111101011000 33
#137999
00
#138199
10
b101011010 9
b1100011111101010111 33
#138399
00
#138599
10
b101011011 9
b1100011111101010110 33
#138799
00
#138999
10
b101011100 9
b1100011111101010101 33
#139199
00
#139399
10
b101011101 9
b1100011111101010100 33
#139599
00
#139799
10
b101011110 9
b1100011111101010011 33
#139999
00
#140199
10
b101011111 9
b1100011111101010010 33
#140399
00
#140599
10
b101100000 9
b1100011111101010001 33
b100 c
#140799
00
#140999
10
b10 35
b1100011111101010000 33
b10111 34
b101100001 9
b101011 b
15
04
#141199
00
#141399
10
b101100010 9
b1100011111101001111 33
08
#141599
00
#141799
10
b101100011 9
b1100011111101001110 33
b1010110 b
18
#141999
00
#142199
10
b101100100 9
b1100011111101001101 33
08
#142399
00
#142599
10
b101100101 9
b1100011111101001100 33
b10101100 b
18
1a
#142799
00
#142999
10
b101100110 9
b1100011111101001011 33
08
#143199
00
#143399
10
b101100111 9
b1100011111101001010 33
b1011000 b
18
0a
#143599
00
#143799
10
b101101000 9
b1100011111101001001 33
08
#143999
00
#144199
10
b101101001 9
b1100011111101001000 33
b10110000 b
18
1a
#144399
00
#144599
10
b101101010 9
b1100011111101000111 33
08
#144799
00
#144999
10
b101101011 9
b1100011111101000110 33
b1100000 b
18
0a
#145199
00
#145399
10
b101101100 9
b1100011111101000101 33
08
#145599
00
#145799
10
b101101101 9
b1100011111101000100 33
b11000000 b
18
1a
#145999
00
#146199
10
b101101110 9
b1100011111101000011 33
08
#146399
00
#146599
10
b101101111 9
b1100011111101000010 33
b10000000 b
18
#146799
00
#146999
10
b101110000 9
b1100011111101000001 33
b0 c
08
#147199
00
#147399
10
17
b11 35
b1100011111101000000 33
b11000 34
b101110001 9
b0 b
16
18
0a
#147599
00
#147799
10
b101110010 9
b1100011111100111111 33
08
#147999
00
#148199
10
b101110011 9
b1100011111100111110 33
18
#148399
00
#148599
10
b101110100 9
b1100011111100111101 33
08
#148799
00
#148999
10
b101110101 9
b1100011111100111100 33
18
#149199
00
#149399
10
b101110110 9
b1100011111100111011 33
08
#149599
00
#149799
10
b101110111 9
b1100011111100111010 33
18
#149999
00
#150199
10
b101111000 9
b1100011111100111001 33
08
#150399
00
#150599
10
b101111001 9
b1100011111100111000 33
18
#150799
00
#150999
10
b101111010 9
b1100011111100110111 33
08
#151199
00
#151399
10
b101111011 9
b1100011111100110110 33
18
#151599
00
#151799
10
b101111100 9
b1100011111100110101 33
08
#151999
00
#152199
10
b101111101 9
b1100011111100110100 33
18
#152399
00
#152599
10
b101111110 9
b1100011111100110011 33
08
#152799
00
#152999
10
b101111111 9
b1100011111100110010 33
18
#153199
00
#153399
10
b110000000 9
b1100011111100110001 33
b1010000 c
08
#153599
00
#153799
10
b100 35
b1100011111100110000 33
b11001 34
b110000001 9
b1010000 b
18
#153999
00
#154199
10
b110000010 9
b1100011111100101111 33
08
#154399
00
#154599
10
b110000011 9
b1100011111100101110 33
b10100000 b
18
1a
#154799
00
#154999
10
b110000100 9
b1100011111100101101 33
08
#155199
00
#155399
10
b110000101 9
b1100011111100101100 33
b1000000 b
18
0a
#155599
00
#155799
10
b110000110 9
b1100011111100101011 33
08
#155999
00
#156199
10
b110000111 9
b1100011111100101010 33
b10000000 b
18
1a
#156399
00
#156599
10
b110001000 9
b1100011111100101001 33
08
#156799
00
#156999
10
b110001001 9
b1100011111100101000 33
b0 b
18
0a
#157199
00
#157399
10
b110001010 9
b1100011111100100111 33
08
#157599
00
#157799
10
b110001011 9
b1100011111100100110 33
18
#157999
00
#158199
10
b110001100 9
b1100011111100100101 33
08
#158399
00
#158599
10
b110001101 9
b1100011111100100100 33
18
#158799
00
#158999
10
b110001110 9
b1100011111100100011 33
08
#159199
00
#159399
10
b110001111 9
b1100011111100100010 33
18
#159599
00
#159799
10
b110010000 9
b1100011111100100001 33
b1 c
08
#159999
00
